cell.frame	cell.index	cell.center.x	cell.center.y	cell.majoraxis	cell.minoraxis	cell.orientation	cell.area	cell.volume	cell.perimeter	cell.eccentricity	cell.fractionOfGoodMembranePixels	cell.mem.area	cell.mem.volume	cell.nuc.radius	cell.nuc.area	mKOk.background.mean	mKOk.background.std	mKOk.cell.total	mKOk.cell.q25	mKOk.cell.q50	mKOk.cell.q75	mKOk.mem.total	mKOk.mem.q25	mKOk.mem.q50	mKOk.mem.q75	mKOk.nuc.total	mKOk.nuc.q25	mKOk.nuc.q50	mKOk.nuc.q75	mKOk.bright.total	mKOk.bright.q25	mKOk.bright.q50	mKOk.bright.q75	mKOk.bright.euler	mKate.background.mean	mKate.background.std	mKate.cell.total	mKate.cell.q25	mKate.cell.q50	mKate.cell.q75	mKate.mem.total	mKate.mem.q25	mKate.mem.q50	mKate.mem.q75	mKate.nuc.total	mKate.nuc.q25	mKate.nuc.q50	mKate.nuc.q75	mKate.bright.total	mKate.bright.q25	mKate.bright.q50	mKate.bright.q75	mKate.bright.euler
19	1	47	62	30	25	+49.686	566	9024	86	0.56161	0.96396	149	3335	5	89	198	13	147284	240	259	279	36230	223	240	258	25719	278	293	306	48752	276	286	295	5	134	8	81594	136	144	151	21040	133	141	148	13088	141	149	156	25611	149	150	153	7
19	2	46	88	20	19	+88.780	290	3262	64	0.34050	0.65789	111	1721	4	45	198	13	58674	191	202	214	22486	193	202	212	9163	201	211	218	18520	210	212	216	6	134	8	38069	124	132	138	14475	123	132	136	5893	127	135	141	11765	134	135	136	15
19	3	72	40	37	29	+21.337	844	15896	107	0.60492	0.96350	183	4995	6	137	198	13	217496	238	258	277	43783	223	237	256	34929	267	282	294	70800	274	278	284	4	134	8	121375	134	141	150	25318	132	138	144	20113	148	157	173	39021	146	149	156	9
19	4	71	75	35	27	+70.970	725	12510	99	0.65709	1.00000	173	4354	6	109	198	13	187033	238	259	277	42834	226	248	267	31509	266	285	297	61745	276	283	290	4	134	8	102533	134	141	148	24245	131	141	148	16397	137	146	154	32020	144	146	148	16
19	5	100	83	29	23	-4.405	533	7900	82	0.59980	1.00000	147	3132	5	81	198	13	137196	238	256	277	35164	223	237	253	23019	273	290	303	45269	274	282	291	3	134	8	74745	133	139	147	20312	130	137	144	11470	134	143	151	23426	144	144	148	10
19	6	101	56	34	27	-0.843	713	12366	98	0.57769	0.97581	170	4227	6	109	198	13	189424	245	265	287	42025	224	246	268	32979	279	295	311	62385	283	290	297	5	134	8	102603	135	142	150	24861	134	141	151	16974	138	146	159	32833	146	148	152	6