cell.frame	cell.index	cell.center.x	cell.center.y	cell.majoraxis	cell.minoraxis	cell.orientation	cell.area	cell.volume	cell.perimeter	cell.eccentricity	cell.fractionOfGoodMembranePixels	cell.mem.area	cell.mem.volume	cell.nuc.radius	cell.nuc.area	mKOk.background.mean	mKOk.background.std	mKOk.cell.total	mKOk.cell.q25	mKOk.cell.q50	mKOk.cell.q75	mKOk.mem.total	mKOk.mem.q25	mKOk.mem.q50	mKOk.mem.q75	mKOk.nuc.total	mKOk.nuc.q25	mKOk.nuc.q50	mKOk.nuc.q75	mKOk.bright.total	mKOk.bright.q25	mKOk.bright.q50	mKOk.bright.q75	mKOk.bright.euler	mKate.background.mean	mKate.background.std	mKate.cell.total	mKate.cell.q25	mKate.cell.q50	mKate.cell.q75	mKate.mem.total	mKate.mem.q25	mKate.mem.q50	mKate.mem.q75	mKate.nuc.total	mKate.nuc.q25	mKate.nuc.q50	mKate.nuc.q75	mKate.bright.total	mKate.bright.q25	mKate.bright.q50	mKate.bright.q75	mKate.bright.euler
1	1	51	72	8	7	-2.556	45	224	22	0.49557	0.89286	32	199	2	9	192	12	8937	188	198	210	6346	188	198	210	819	200	209	210	2862	201	204	207	3	129	7	5868	123	130	139	4132	122	129	136	541	127	133	144	1907	134	136	139	2
1	2	84	42	35	28	+24.620	758	13278	98	0.62453	1.00000	176	4452	6	113	192	12	199349	240	261	284	41346	218	235	251	36814	289	307	324	66985	281	289	310	4	129	7	107339	134	141	149	24193	130	136	144	17556	138	145	155	33501	145	147	150	11
1	3	81	74	34	28	-80.016	749	13470	102	0.55873	0.96825	179	4584	6	121	192	12	189945	229	252	275	41062	211	228	245	35574	276	299	315	64822	275	285	301	2	129	7	103166	129	138	145	24000	126	133	141	17130	135	141	150	32473	142	144	146	9
1	4	106	59	26	24	+46.869	485	7270	77	0.42097	0.97980	131	2810	5	69	192	12	124298	230	256	279	30429	212	227	250	23605	279	299	312	42179	276	287	300	2	129	7	67864	132	140	146	17941	128	137	144	11615	137	145	153	21315	144	146	148	5
1	5	129	59	23	17	+14.925	283	2850	73	0.65672	0.64706	120	1707	4	45	192	12	55267	186	193	205	23385	186	193	204	8781	189	197	207	17187	200	202	204	7	129	7	36493	123	129	135	15516	123	129	135	5778	126	132	139	11330	131	133	135	9