cell.frame	cell.index	cell.center.x	cell.center.y	cell.majoraxis	cell.minoraxis	cell.orientation	cell.area	cell.volume	cell.perimeter	cell.eccentricity	cell.fractionOfGoodMembranePixels	cell.mem.area	cell.mem.volume	cell.nuc.radius	cell.nuc.area	mKOk.background.mean	mKOk.background.std	mKOk.cell.total	mKOk.cell.q25	mKOk.cell.q50	mKOk.cell.q75	mKOk.mem.total	mKOk.mem.q25	mKOk.mem.q50	mKOk.mem.q75	mKOk.nuc.total	mKOk.nuc.q25	mKOk.nuc.q50	mKOk.nuc.q75	mKOk.bright.total	mKOk.bright.q25	mKOk.bright.q50	mKOk.bright.q75	mKOk.bright.euler	mKate.background.mean	mKate.background.std	mKate.cell.total	mKate.cell.q25	mKate.cell.q50	mKate.cell.q75	mKate.mem.total	mKate.mem.q25	mKate.mem.q50	mKate.mem.q75	mKate.nuc.total	mKate.nuc.q25	mKate.nuc.q50	mKate.nuc.q75	mKate.bright.total	mKate.bright.q25	mKate.bright.q50	mKate.bright.q75	mKate.bright.euler
20	1	46	63	30	25	+45.856	587	9410	88	0.57052	0.97273	153	3460	5	97	194	15	154566	241	261	285	37220	223	241	258	26227	284	299	311	51213	282	287	300	6	126	8	85503	137	146	153	21762	134	141	150	13339	146	150	162	26750	150	151	154	10
20	2	70	76	35	27	+67.457	719	12234	100	0.65137	0.95200	176	4389	6	109	194	15	189316	243	263	283	43788	229	247	267	32103	270	288	301	61825	279	285	291	5	126	8	102844	136	143	150	24932	136	142	149	16436	141	147	154	31976	146	148	149	16
20	3	72	41	37	30	+20.712	875	17326	105	0.56252	0.97761	183	5300	7	137	194	15	229672	245	262	282	44173	222	242	259	40086	270	289	301	75204	279	286	291	5	126	8	126879	135	142	151	25351	131	138	145	23429	148	160	188	41401	146	149	158	17
20	4	101	84	28	23	+14.103	504	7368	81	0.54007	0.97000	144	2968	5	69	194	15	131970	240	262	283	35173	225	240	262	23243	277	290	305	43694	281	287	295	3	126	8	70880	133	139	148	19922	131	138	146	11559	138	145	153	22152	144	147	148	3
20	5	101	57	34	28	+9.230	745	13458	100	0.57963	0.97619	176	4597	6	113	194	15	201332	249	271	291	44127	228	249	271	35479	283	296	313	66213	290	295	299	3	126	8	108972	135	144	151	25542	133	140	150	19930	142	153	181	35825	147	150	160	9