cell.frame	cell.index	cell.center.x	cell.center.y	cell.majoraxis	cell.minoraxis	cell.orientation	cell.area	cell.volume	cell.perimeter	cell.eccentricity	cell.fractionOfGoodMembranePixels	cell.mem.area	cell.mem.volume	cell.nuc.radius	cell.nuc.area	mKOk.background.mean	mKOk.background.std	mKOk.cell.total	mKOk.cell.q25	mKOk.cell.q50	mKOk.cell.q75	mKOk.mem.total	mKOk.mem.q25	mKOk.mem.q50	mKOk.mem.q75	mKOk.nuc.total	mKOk.nuc.q25	mKOk.nuc.q50	mKOk.nuc.q75	mKOk.bright.total	mKOk.bright.q25	mKOk.bright.q50	mKOk.bright.q75	mKOk.bright.euler	mKate.background.mean	mKate.background.std	mKate.cell.total	mKate.cell.q25	mKate.cell.q50	mKate.cell.q75	mKate.mem.total	mKate.mem.q25	mKate.mem.q50	mKate.mem.q75	mKate.nuc.total	mKate.nuc.q25	mKate.nuc.q50	mKate.nuc.q75	mKate.bright.total	mKate.bright.q25	mKate.bright.q50	mKate.bright.q75	mKate.bright.euler
16	1	50	62	28	24	+57.080	517	7722	83	0.52371	0.98113	142	2967	5	81	199	15	136583	245	263	283	34685	226	244	262	23859	282	302	316	45234	282	290	301	2	133	8	74683	136	144	153	20344	134	143	150	12048	142	153	160	23653	150	152	155	4
16	2	74	75	35	29	+53.147	797	14994	102	0.55944	0.97710	176	4661	6	121	199	15	213526	249	267	286	43275	229	246	262	35274	281	293	308	69292	282	288	296	11	133	8	114320	134	142	150	25354	132	140	148	18604	139	148	161	36620	147	149	152	12
16	3	75	41	36	31	+18.196	861	16814	104	0.51444	0.92248	184	5321	7	137	199	15	226120	244	261	281	44600	227	243	257	40297	271	289	306	74107	277	284	297	3	133	8	127736	137	145	153	27454	135	143	151	24017	144	156	176	41730	149	151	157	14
16	4	102	57	33	27	-1.644	693	12026	96	0.56297	0.94355	166	4115	6	109	199	15	187726	250	271	291	41599	232	247	268	33474	285	300	314	61414	287	293	301	3	133	8	102003	139	147	155	23985	136	144	151	17070	145	152	160	32114	152	153	156	10
16	5	101	82	24	21	+5.633	391	5186	69	0.54555	1.00000	123	2318	4	61	199	15	100611	240	258	276	29987	222	243	266	16725	259	280	296	32452	273	276	280	4	133	8	55389	134	141	150	17507	135	140	151	8610	137	144	151	17276	145	146	150	8
16	6	128	77	13	11	+22.482	115	832	37	0.51201	0.42222	61	592	2	21	199	15	23121	190	203	214	12216	191	203	210	3334	199	212	222	7326	206	208	212	9	133	8	15571	128	133	139	8347	126	133	139	2365	126	135	143	4803	136	138	138	3