cell.frame	cell.index	cell.center.x	cell.center.y	cell.majoraxis	cell.minoraxis	cell.orientation	cell.area	cell.volume	cell.perimeter	cell.eccentricity	cell.fractionOfGoodMembranePixels	cell.mem.area	cell.mem.volume	cell.nuc.radius	cell.nuc.area	mKOk.background.mean	mKOk.background.std	mKOk.cell.total	mKOk.cell.q25	mKOk.cell.q50	mKOk.cell.q75	mKOk.mem.total	mKOk.mem.q25	mKOk.mem.q50	mKOk.mem.q75	mKOk.nuc.total	mKOk.nuc.q25	mKOk.nuc.q50	mKOk.nuc.q75	mKOk.bright.total	mKOk.bright.q25	mKOk.bright.q50	mKOk.bright.q75	mKOk.bright.euler	mKate.background.mean	mKate.background.std	mKate.cell.total	mKate.cell.q25	mKate.cell.q50	mKate.cell.q75	mKate.mem.total	mKate.mem.q25	mKate.mem.q50	mKate.mem.q75	mKate.nuc.total	mKate.nuc.q25	mKate.nuc.q50	mKate.nuc.q75	mKate.bright.total	mKate.bright.q25	mKate.bright.q50	mKate.bright.q75	mKate.bright.euler
4	1	49	73	8	7	+89.105	43	208	21	0.30542	1.00000	32	185	2	9	192	12	8556	188	198	209	6359	187	200	209	838	194	219	225	2708	206	209	209	1	128	6	5605	124	129	136	4173	124	128	138	546	133	135	141	1739	133	134	134	1
4	2	82	43	37	29	+22.257	817	15170	102	0.62000	1.00000	182	4911	6	129	192	12	213709	242	263	280	42718	215	235	251	35195	275	296	311	70226	279	283	295	5	128	6	116582	135	143	150	25392	131	139	147	17609	139	146	153	36467	147	148	150	14
4	3	80	76	34	30	+88.629	808	15434	101	0.48313	0.99200	181	5035	6	129	192	12	206522	234	253	277	40737	209	225	241	37408	286	301	316	69880	273	287	301	6	128	6	110933	130	136	144	24223	128	133	140	17693	136	143	150	34711	141	143	145	11
4	4	106	60	27	25	+17.355	528	8416	80	0.38983	1.00000	138	3158	5	89	192	12	136587	231	256	283	31463	208	226	246	27259	291	308	329	46989	281	291	310	1	128	6	73866	133	140	148	18649	129	135	142	12686	136	146	152	23144	144	146	148	5
4	5	103	83	17	15	+62.312	186	1630	55	0.37853	0.71875	91	1035	3	29	192	12	36906	187	199	210	18317	191	201	215	6417	186	204	212	11699	205	208	214	5	128	6	24258	124	130	138	11989	125	132	139	4157	122	128	140	7557	133	134	136	6