cell.frame	cell.index	cell.center.x	cell.center.y	cell.majoraxis	cell.minoraxis	cell.orientation	cell.area	cell.volume	cell.perimeter	cell.eccentricity	cell.fractionOfGoodMembranePixels	cell.mem.area	cell.mem.volume	cell.nuc.radius	cell.nuc.area
25	1	169	260	16	11	+23.217	134	994	41	0.68865	0.03846	104	892	3	21
25	2	220	373	18	14	+4.839	185	1606	49	0.61283	0.06452	129	1342	3	25
25	3	314	212	20	15	-27.151	222	2084	55	0.64445	0.09375	141	1641	3	37
25	4	355	143	16	14	-38.836	174	1568	45	0.52051	0.00000	117	1283	3	25
25	5	376	241	14	14	-72.184	158	1490	43	0.19259	0.05357	108	1240	3	25
25	6	379	306	15	13	-10.958	145	1146	43	0.42249	0.01923	109	1022	3	21
25	7	129	220	70	28	-36.769	1487	27783	158	0.91776	0.53846	458	10596	8	185
25	8	187	242	67	28	-9.263	1433	25273	153	0.90809	0.92222	452	10358	8	177
25	9	189	417	111	28	+76.471	2324	42322	228	0.96855	0.66667	688	16804	9	241
25	10	204	270	64	28	-1.193	1360	23594	150	0.90037	0.89903	440	9964	7	177
25	11	239	347	114	29	+9.674	2407	45759	239	0.96628	0.85659	716	18656	9	261
25	12	260	269	59	26	-0.390	1166	19168	143	0.89780	0.86446	419	9147	7	145
25	13	269	294	69	25	-6.799	1317	21273	154	0.93053	0.83769	455	9687	7	161
25	14	290	249	108	26	-21.887	2048	34812	222	0.97166	0.86544	670	15094	8	221
25	15	290	319	61	26	-2.377	1197	19723	143	0.90251	0.77812	422	9350	7	145
25	16	317	285	66	27	-18.098	1349	23485	154	0.91562	0.79682	454	10116	7	177
25	17	319	235	63	26	-10.331	1269	21857	144	0.90761	0.93846	426	9654	7	161
25	18	344	314	59	27	+3.673	1224	20744	142	0.88907	0.87045	417	9275	7	149
25	19	358	181	106	29	+57.049	2364	48272	225	0.96147	0.87742	665	17161	9	277
25	20	379	286	70	26	+7.293	1394	23962	155	0.92646	0.91481	459	10465	7	177
25	21	406	102	104	28	+72.165	2206	40688	218	0.96395	0.55412	656	15974	9	241
25	22	380	186	16	13	+28.732	160	1172	45	0.57381	0.15517	118	1018	3	21
25	23	368	217	60	28	+49.231	1310	24360	143	0.88660	0.94025	413	9279	7	177
25	24	215	319	107	26	+1.890	2103	36733	221	0.96908	0.76691	658	15832	8	225
25	25	204	296	77	25	+0.308	1471	23911	169	0.94525	0.87023	498	10818	7	177