cell.frame	cell.index	cell.center.x	cell.center.y	cell.majoraxis	cell.minoraxis	cell.orientation	cell.area	cell.volume	cell.perimeter	cell.eccentricity	cell.fractionOfGoodMembranePixels	cell.mem.area	cell.mem.volume	cell.nuc.radius	cell.nuc.area
21	1	161	262	15	13	+80.047	157	1374	42	0.53630	0.00000	108	1153	3	25
21	2	173	396	17	14	+9.876	186	1694	46	0.56421	0.00000	122	1398	3	29
21	3	188	339	13	11	-42.163	110	762	35	0.47030	0.00000	87	699	2	21
21	4	211	245	18	14	-81.062	194	1700	48	0.63278	0.05172	129	1403	3	29
21	5	220	375	17	14	+13.290	173	1512	48	0.52408	0.05000	124	1303	3	25
21	6	227	247	15	14	-81.689	161	1378	43	0.39483	0.07692	111	1148	3	25
21	7	244	248	17	14	-49.717	182	1652	47	0.55184	0.14286	123	1393	3	29
21	8	291	229	19	14	-63.816	205	1930	52	0.64810	0.09091	136	1571	3	37
21	9	299	337	16	15	-31.616	177	1540	48	0.36210	0.07143	123	1306	3	25
21	10	314	215	21	16	-4.640	249	2446	58	0.66537	0.07042	155	1860	3	37
21	11	332	179	16	13	-13.713	161	1410	43	0.58410	0.00000	110	1175	3	25
21	12	340	254	15	13	-15.537	144	1168	45	0.43828	0.07018	111	1055	3	21
21	13	364	244	15	14	+81.872	153	1274	43	0.40702	0.09259	111	1088	3	21
21	14	370	308	18	14	-8.270	192	1734	50	0.58177	0.05000	130	1440	3	29
21	15	378	191	28	14	+49.360	291	2894	69	0.85920	0.20225	187	2290	4	45
21	16	385	235	15	14	-67.804	156	1364	43	0.29157	0.05357	109	1145	3	25
21	17	392	174	15	13	-6.604	157	1378	42	0.52939	0.00000	108	1153	3	25
21	18	400	158	15	14	-48.460	168	1550	44	0.42047	0.03571	115	1297	3	25
21	19	128	218	55	28	-33.045	1158	20642	136	0.85892	0.52514	396	8644	7	149
21	20	174	242	62	29	-25.915	1366	25898	150	0.88428	0.70543	442	10542	8	177
21	21	190	417	110	27	+76.406	2284	41460	228	0.96882	0.54767	686	16776	9	241
21	22	239	270	108	28	-1.147	2282	41126	229	0.96701	0.77461	685	16543	9	241
21	23	239	348	108	27	+13.091	2250	40646	226	0.96812	0.82060	684	16550	9	241
21	24	267	295	62	25	-3.423	1162	18422	142	0.91800	0.75720	413	8573	7	145
21	25	292	253	100	25	-20.464	1896	31984	208	0.96714	0.76228	621	13893	8	213
21	26	348	227	105	28	+20.453	2257	43837	224	0.96288	0.78832	668	17380	9	253
21	27	360	179	101	29	+54.665	2238	45706	216	0.95754	0.86436	633	16253	9	261
21	28	373	288	62	26	+3.860	1241	20925	142	0.90899	0.91837	419	9369	7	149
21	29	406	103	102	28	+71.269	2136	39294	214	0.96290	0.45188	644	15664	9	241
21	30	340	166	17	13	-20.390	168	1316	45	0.65585	0.00000	116	1084	3	21
21	31	347	154	17	13	-19.037	171	1351	45	0.63444	0.03448	116	1096	3	21
21	32	219	320	99	27	+0.891	1983	34627	211	0.96291	0.78523	626	14850	8	221
21	33	208	296	67	25	+2.455	1306	21150	150	0.92693	0.90820	440	9424	7	149
21	34	311	315	106	27	+4.047	2150	37870	223	0.96740	0.77887	665	15919	9	233
21	35	316	286	60	26	-14.130	1178	19122	144	0.90452	0.68936	417	8673	7	145