cell.frame	cell.index	cell.center.x	cell.center.y	cell.majoraxis	cell.minoraxis	cell.orientation	cell.area	cell.volume	cell.perimeter	cell.eccentricity	cell.fractionOfGoodMembranePixels	cell.mem.area	cell.mem.volume	cell.nuc.radius	cell.nuc.area
18	1	157	260	15	13	+86.186	152	1316	41	0.39538	0.00000	105	1097	3	21
18	2	189	341	14	13	-75.093	143	1174	40	0.24915	0.00000	103	1022	3	21
18	3	212	245	16	15	+84.110	189	1712	49	0.34391	0.06897	127	1418	3	29
18	4	221	377	17	14	-1.224	182	1670	49	0.57757	0.03226	125	1397	3	29
18	5	228	247	15	14	-79.888	160	1352	44	0.43097	0.07692	112	1148	3	21
18	6	240	369	13	13	+6.633	127	1010	38	0.10583	0.00000	98	917	3	21
18	7	244	249	18	14	-39.745	185	1598	48	0.61389	0.00000	127	1348	3	25
18	8	291	230	19	15	-50.157	215	2094	52	0.59445	0.04545	138	1623	3	37
18	9	296	337	16	14	-16.607	166	1372	46	0.52458	0.03704	118	1160	3	25
18	10	309	216	16	13	-73.450	166	1456	43	0.60732	0.00000	112	1210	3	25
18	11	324	210	18	15	-52.097	195	1800	51	0.57286	0.08065	131	1468	3	29
18	12	333	182	16	13	-16.364	163	1426	43	0.57229	0.00000	111	1182	3	25
18	13	344	162	16	13	-20.750	166	1464	44	0.56125	0.03571	112	1210	3	25
18	14	340	253	16	13	+13.054	148	1204	46	0.54167	0.07018	111	1067	3	21
18	15	362	245	16	14	+63.451	162	1356	45	0.47600	0.03704	114	1152	3	25
18	16	380	191	26	14	+51.883	273	2664	66	0.84082	0.08235	179	2142	4	37
18	17	385	234	14	14	-79.153	156	1442	43	0.25123	0.01786	109	1211	3	25
18	18	393	172	15	13	+1.042	148	1268	41	0.45594	0.00000	105	1073	3	21
18	19	153	232	118	29	-28.262	2554	51326	241	0.97020	0.56019	726	19082	10	293
18	20	190	415	104	27	+77.138	2158	39030	217	0.96473	0.58252	652	15832	9	241
18	21	238	270	107	27	-1.787	2239	40347	226	0.96632	0.78995	675	16289	9	241
18	22	238	349	105	27	+15.555	2182	39598	221	0.96554	0.81213	665	16115	9	241
18	23	266	294	57	24	-0.909	1050	16242	133	0.90244	0.80065	388	7904	6	137
18	24	292	254	97	26	-20.613	1858	31506	202	0.96477	0.79710	604	13560	8	213
18	25	310	315	105	26	+3.057	2103	36797	219	0.96766	0.66142	656	15622	9	225
18	26	405	106	95	27	+69.845	1987	36537	201	0.95706	0.49790	604	14566	8	221
18	27	221	320	93	26	+2.088	1857	32229	202	0.95951	0.82653	599	14089	8	213
18	28	211	296	63	25	+2.824	1228	19736	143	0.91548	0.89344	420	8848	7	145
18	29	310	286	48	27	-13.315	987	16231	125	0.83168	0.70068	362	7592	6	137
18	30	360	293	61	26	-11.761	1181	18817	146	0.90774	0.78344	418	8506	7	145
18	31	348	227	105	29	+20.960	2306	45178	224	0.96167	0.83266	672	17440	9	261
18	32	362	178	94	29	+58.032	2079	41963	203	0.95139	0.85640	597	15261	9	241