cell.frame	cell.index	cell.center.x	cell.center.y	cell.majoraxis	cell.minoraxis	cell.orientation	cell.area	cell.volume	cell.perimeter	cell.eccentricity	cell.fractionOfGoodMembranePixels	cell.mem.area	cell.mem.volume	cell.nuc.radius	cell.nuc.area
4	1	207	340	27	16	+9.643	306	3130	68	0.80954	0.00000	185	2421	4	45
4	2	207	285	14	10	+4.867	111	772	37	0.69970	0.00000	93	730	2	21
4	3	214	244	19	15	+17.133	213	1992	53	0.55562	0.08065	138	1591	3	37
4	4	237	372	16	14	-13.547	174	1664	46	0.44922	0.00000	117	1349	3	29
4	5	233	246	15	13	-86.023	158	1344	42	0.48779	0.01923	110	1136	3	21
4	6	249	249	17	14	-79.418	185	1606	46	0.58590	0.00000	122	1307	3	25
4	7	263	251	19	14	-83.857	197	1734	49	0.66550	0.06667	130	1415	3	29
4	8	268	335	14	11	-66.144	116	834	39	0.64027	0.08163	95	781	2	21
4	9	294	239	17	13	-80.294	175	1522	46	0.64051	0.00000	119	1262	3	25
4	10	292	335	15	13	+45.367	155	1262	43	0.44545	0.00000	112	1087	3	21
4	11	336	205	17	15	-41.442	197	1960	50	0.51783	0.03077	127	1538	3	37
4	12	335	268	22	20	-86.785	298	3282	67	0.43030	0.03750	181	2527	4	45
4	13	366	238	16	15	-4.402	170	1606	47	0.33220	0.04918	117	1333	3	25
4	14	164	238	88	28	-28.246	1897	37253	190	0.94749	0.69408	567	14431	9	225
4	15	194	405	72	27	+76.457	1515	27021	162	0.92593	0.64094	480	11220	8	185
4	16	230	269	77	28	-7.003	1681	31409	176	0.93198	0.85594	519	12815	8	213
4	17	229	352	73	27	+32.445	1517	28071	163	0.92718	0.84268	476	10984	8	185
4	18	234	319	68	25	+4.495	1284	20640	152	0.92861	0.82443	445	9553	7	149
4	19	250	294	92	25	+5.588	1721	27925	195	0.96409	0.77129	577	12745	8	185
4	20	298	314	74	26	+4.475	1494	25742	164	0.93478	0.83421	483	11185	8	177
4	21	298	263	65	27	+16.206	1337	23327	153	0.90935	0.84514	453	10143	7	177
4	22	330	290	88	27	-6.848	1776	31050	190	0.95387	0.76551	565	13379	8	197
4	23	348	225	73	29	+38.694	1618	32194	167	0.91941	0.84535	485	11885	8	213
4	24	372	170	65	30	+69.848	1492	28540	155	0.89110	0.85592	459	11139	8	193
4	25	401	117	67	27	+64.493	1402	25442	153	0.91244	0.61833	452	10372	8	177