cell.frame	cell.index	cell.center.x	cell.center.y	cell.majoraxis	cell.minoraxis	cell.orientation	cell.area	cell.volume	cell.perimeter	cell.eccentricity	cell.fractionOfGoodMembranePixels	cell.mem.area	cell.mem.volume	cell.nuc.radius	cell.nuc.area
8	1	154	256	16	15	+55.075	173	1606	47	0.33156	0.00000	119	1332	3	25
8	2	188	223	16	13	+76.913	164	1420	44	0.59482	0.00000	113	1189	3	25
8	3	185	273	16	14	+45.336	174	1590	48	0.48951	0.11475	121	1325	3	25
8	4	204	341	23	15	+1.379	251	2464	60	0.75996	0.06579	160	1985	3	37
8	5	213	243	17	17	+72.852	214	2136	52	0.13060	0.18333	136	1702	3	37
8	6	238	372	16	15	-67.268	175	1602	48	0.40038	0.09677	122	1329	3	25
8	7	232	246	14	12	-81.759	128	950	38	0.55407	0.15217	96	846	3	21
8	8	253	249	20	15	-31.316	227	2212	53	0.65893	0.20313	141	1722	3	37
8	9	261	360	15	14	-62.812	154	1316	43	0.36509	0.00000	109	1123	3	21
8	10	280	336	18	15	-4.910	193	1736	49	0.56885	0.03448	131	1466	3	29
8	11	298	335	14	14	+39.388	154	1260	42	0.27270	0.00000	109	1079	3	21
8	12	301	240	20	14	-34.901	207	1916	53	0.69324	0.15625	135	1540	3	37
8	13	342	204	18	17	+20.588	225	2374	55	0.36412	0.28571	142	1855	3	37
8	14	340	271	13	12	+52.949	121	906	39	0.35945	0.08696	95	836	2	21
8	15	345	253	20	13	+17.308	199	1754	53	0.73742	0.13636	135	1466	3	29
8	16	352	312	17	14	-23.545	177	1486	49	0.60770	0.10714	121	1234	3	25
8	17	365	241	15	15	+87.344	169	1524	47	0.22162	0.15000	120	1287	3	25
8	18	391	181	16	14	+23.105	166	1400	45	0.52716	0.19643	117	1179	3	25
8	19	161	235	98	28	-27.917	2116	42004	207	0.95690	0.81471	620	15992	9	241
8	20	194	408	81	27	+77.488	1704	30542	178	0.94199	0.82028	531	12553	8	193
8	21	233	268	85	28	-5.677	1826	33028	187	0.94617	0.88427	554	13270	8	213
8	22	231	319	74	25	+5.770	1431	23323	162	0.93949	0.87184	479	10375	7	177
8	23	233	351	82	27	+28.322	1717	31669	180	0.94225	0.88809	533	12497	8	213
8	24	247	294	102	25	+5.705	1929	31865	212	0.96879	0.79103	635	14243	8	213
8	25	300	260	75	26	-8.813	1522	26722	166	0.93561	0.94167	492	11448	8	185
8	26	302	314	83	26	+3.124	1677	29025	180	0.94821	0.88866	538	12504	8	193
8	27	335	290	98	26	-7.204	1939	33745	206	0.96406	0.83089	617	14735	8	221
8	28	348	226	85	28	+30.664	1832	35892	187	0.94400	0.95473	555	13919	8	221
8	29	371	171	71	30	+67.608	1621	31425	165	0.91034	0.90590	488	12040	8	213
8	30	403	113	74	28	+65.373	1584	29184	165	0.92758	0.79877	492	11562	8	193
8	31	345	170	17	13	-11.027	169	1273	45	0.65825	0.10714	118	1050	3	21
8	32	350	158	17	13	-11.945	167	1255	45	0.63964	0.14286	117	1029	3	21